[
  {
    "id": "tower_1",
    "cost":50,
    "power":10,
    "speed":1,
    "range":1,
    "next_upgrade":"tower_2",
    "next_cost": 30,
    "previous":null
  },
  { "id": "tower_2",
    "cost":30,
    "power":20,
    "speed":1,
    "range":1,
    "next_upgrade":"tower_3",
    "next_cost": 50,
    "previous":"tower_1"
  },
  { "id": "tower_3",
    "cost":50,
    "power":30,
    "speed":2,
    "range":2,
    "next_upgrade":null,
    "next_cost": -1,
    "previous":"tower_2"
  },
  { "id": "tower_11",
    "cost":100,
    "power":25,
    "speed":1,
    "range":1,
    "next_upgrade":"tower_12",
    "next_cost": 80,
    "previous":null
  },
  { "id": "tower_12",
    "cost":80,
    "power":50,
    "speed":2,
    "range":1,
    "next_upgrade":"tower_13",
    "next_cost": 120,
    "previous":"tower_11"
  },
  { "id": "tower_13",
    "cost":120,
    "power":70,
    "speed":4,
    "range":2,
    "next_upgrade":null,
    "next_cost": -1,
    "previous":"tower_12"
  },
  { "id": "tower_21",
    "cost":200,
    "power":20,
    "speed":4,
    "range":2,
    "next_upgrade":"tower_22",
    "next_cost": 150,
    "previous":null
  },
  { "id": "tower_22",
    "cost":150,
    "power":30,
    "speed":6,
    "range":3,
    "next_upgrade":"tower_23",
    "next_cost": 250,
    "previous":"tower_21"
  },
  { "id": "tower_23",
    "cost":250,
    "power":45,
    "speed":8,
    "range":4,
    "next_upgrade":null,
    "next_cost": -1,
    "previous":"tower_22"
  },
  { "id": "tower_31",
    "cost":200,
    "power":80,
    "speed":1,
    "range":1,
    "next_upgrade":"tower_32",
    "next_cost": 150,
    "previous":null
  },
  { "id": "tower_32",
    "cost":150,
    "power":180,
    "speed":1,
    "range":2,
    "next_upgrade":"tower_33",
    "next_cost": 250,
    "previous":"tower_31"
  },
  { "id": "tower_33",
    "cost":250,
    "power":270,
    "speed":1,
    "range":3,
    "next_upgrade":null,
    "next_cost": -1,
    "previous":"tower_32"
  },
  { "id": "tower_41",
    "cost":1000,
    "power":150,
    "speed":2,
    "range":2,
    "next_upgrade":"tower_42",
    "next_cost": 800,
    "previous":null
  },
  { "id": "tower_42",
    "cost":800,
    "power":250,
    "speed":3,
    "range":3,
    "next_upgrade":"tower_43",
    "next_cost": 1200,
    "previous":"tower_41"
  },
  { "id": "tower_43",
    "cost":1200,
    "power":400,
    "speed":4,
    "range":4,
    "next_upgrade":null,
    "next_cost": -1,
    "previous":"tower_42"
  }
]